{
  "minimumVersion": 1, 
    "packages": [
      {
        "name": "technik", 
        "title": "Technik pack", 
        "version": "1.0.25", 
        "location": "technik/manifest.json", 
        "priority": 1
      }
      ,
      {
        "name": "idly", 
        "title": "Idly Pack - BETA", 
        "version": "1.0.6", 
        "location": "idly/manifest.json", 
        "priority": 2
      }
    ]
}
